{
  "date": "2023-04-01",
  "id": "8eccf303-aeec-4bee-ba7e-32591b27cac9",
  "title": "Auvoisa, ankara luonto",
  "text": "Keväällä 2023 Värinä esiintyi ensi kertaa edellisvuonna käynnistyneessä Kuoromusiikin kausikonsertit -sarjassa. Ritarihuoneella esitettiin laaja ja vaativa ohjelmisto, joka kuvasti ihmisen suhdetta luontoon ja luonnonilmiöihin kaikkina vuodenaikoina. Yleisö ja arvostelija kiittivät innostuneesti onnistunutta debyyttiä.\n",
  "image": "/src/content/highlights/auvoisa-ankara-luonto-2023.jpg",
  "published": true,
  "image_credit": "Juuso Koski "
}