{
  "id": "04d083bc-40c3-4710-83a2-b8ec8561a464",
  "image": "/src/content/choir-images/81_varina_balderinsali_2048px_crop.jpg",
  "caption": "Punaposkinen nainen katsoo hymyillen alaspäin turkoosi rusetti rinnassaan"
}