{
  "id": "7a6a3b83-39f8-4b02-ba80-ed37e1837d58",
  "image": "/src/content/choir-images/29_bigfile_20221002_varina_teatterimuseo_miajarvisalo_small.jpg",
  "caption": "Kuorolaisia vihreisiin ja ruskeisiin kaapuihin pukeutuneena ja pahviset pupukorvat päässä, poseeraavat jäniksinä lavalla "
}