{
  "id": "9d24771e-8e09-436b-994c-76a9083feb06",
  "image": "/src/content/choir-images/42_bigfile_20221002_varina_teatterimuseo_miajarvisalo_small.jpg",
  "caption": "Kurolainen esittää hiipivää ilvestä ilvespäähine päässään muiden kuorolaisten keskellä lavalla"
}