{
  "id": "d4b0d587-395b-42d0-a976-a843ef88d1d4",
  "image": "/src/content/choir-images/some_suvilahti_64_miajarvisalo.jpg",
  "caption": "Mustiinpukeutuneet kuorolaiset seisovat väljässä ryhmäkuvassa vanhojen tehdasrakennusten välissä"
}