{
  "id": "de992e16-5e41-4aa7-bac8-2649d1ec9c7d",
  "image": "/src/content/choir-images/some_suvilahti_59_miajarvisalo_crop_jatkettu.jpg",
  "caption": "Mustiinpukeutuneet kuoron naislaulajat poseeraavat dramaattisin, mutta koomisin elein graffitiseinän edessä"
}