{
  "fi": {
    "position": 2,
    "title": "Puheenjohtaja",
    "name": "Henri Korhonen",
    "email": "a29yaG9uZW4uaGVucmlAb3V0bG9vay5jb20="
  },
  "se": {
    "title": "Ordförande",
    "name": "Aino Tanttari",
    "email": "YWluby50YW50dGFyaUBnbWFpbC5jb20="
  },
  "en": {
    "title": "Chairman"
  }
}