{
  "fi": {
    "join": {
      "title": "Tule mukaan!",
      "contact_text": "Haluatko värinäläiseksi? Otamme uusia laulajia läpi kauden tarpeen mukaan. Ota yhteyttä, niin sovitaan koelaulusta.",
      "contact_link": {
        "text": "Ota yhteyttä",
        "email": "bXVzYS12YXJpbmFAZ29vZ2xlZ3JvdXBzLmNvbQ=="
      },
      "shop_text": "Värinän kannatusjäseneksi voit liittyä verkkokaupassamme. Kannatusjäsenenä tuet kuoron taiteellista toimintaa ja saat tietoa tulevista tapahtumista sekä vapaalippuja konsertteihin. \n",
      "shop_link": {
        "text": "Värinän Verkkokauppa",
        "url": "https://holvi.com/shop/kamarikuorovarina/"
      }
    },
    "conductor": {
      "title": "Johtaja",
      "bio": "Kuoron perustaja ja johtaja Noora Hirn on valmistunut musiikkipedagogiksi kuoronjohto pääaineenaan Metropolia-ammattikorkeakoulun klassisen musiikin osastolta. Hirn opiskeli kuoronjohtoa muun muassa Kari Turusen, Jani Sivénin, Rita Varosen ja Seppo Murron opissa sekä laulua Katri Paukkusen ja Teppo Lampelan johdolla. Hirn johtaa Kamarikuoro Värinän lisäksi Savolaisen Osakunnan Laulajia. Aiemmin hän on johtanut muun muassa Kumpulan kuoroa sekä Vaskivuoren lukion kamarikuoroa, jonka kanssa hän saavutti kilpailuvoiton kansainvälisessä kuorokatselmuksessa Belgiassa 2016. Kuorotyön ohella Hirn työskentelee toimittajana ja äänitystuottajana Yleisradion musiikkitoimituksessa. Hirn on myös yksi renessanssimusiikkiin keskittyvän Vokaaliyhtye Uoman sopraanoista ja perustajajäsenistä.\n",
      "image": "/src/content/choir/media/web_kuoro_johtaja01.jpg"
    },
    "summary": "Kamarikuoro Värinä on Helsinkiläinen sekakuoro, jonka laulajia yhdistää laulamisen palo ja rakkaus hienoon kuoromusiikkiin.",
    "introduction": "Kamarikuoro Värinä syntyi elokuussa 2013, kun joukko kokeneita opiskelijakuorolaisia halusi perustaa itselleen valmistumisen jälkeisen kuorokodin. Värinän 40 laulajalle kuorolaulu on ilo ja intohimo. Kuoro harjoittelee tavallisesti pari kertaa kuussa maanantai-iltaisin Alppilan kirkossa.\n\nVärinän ohjelmisto on pääasiassa klassista kuoromusiikkia renessanssista nykymusiikkiin. Uusia yleisöjä ja esitystapoja tavoitteleva kuoro on tehnyt muun muassa brunssi- ja tanssikonsertin, esiintynyt niin taaperoille kuin vangeillekin ja noussut näyttämölle laulamaan yhtä hyvin barokkioratoriota kuin neuvosto-operettiakin. Kriitikoiden kiittämä kuoro on voittanut Linzissä Itävallassa Anton Bruckner -kilpailun kamarikuorosarjan huippupistein ja yltänyt Tampereen Sävelen kuorokatselmuksessa kahteen kultaleimaan.\n\nKuoron nimen takana on ajatus sointiväristä. Kuten soittimilla kuoroillakin on omaleimainen värinsä, joka syntyy pitkällisen yhdessä laulamisen ja keskinäisen kuuntelun tuloksena ja tekee kuorosta kokonaisuuden. Nimi viittaa myös äänen värähtelyyn, hienovaraiseen liikkeeseen, joka kuljettaa äänen ilman halki kuulijalle.\n",
    "title": "Kuoro",
    "singers": {
      "title": "Laulajat",
      "voices": {
        "soprano": "Sopraanot",
        "alto": "Altot",
        "tenor": "Tenorit",
        "bass": "Bassot"
      }
    }
  },
  "se": {
    "singers": {
      "title": "Sångare",
      "voices": {
        "soprano": "Sopraner",
        "alto": "Altar",
        "tenor": "Tenorer",
        "bass": "Baser"
      }
    },
    "join": {
      "title": "Ta kontakt",
      "contact_text": "Vill du komma med i kören, samarbeta eller ha tilläggsinformation om oss? Vi tar in nya sångare enligt behov.\n\n\n\n\n",
      "contact_link": {
        "text": "Ta kontakt",
        "email": "bXVzYS12YXJpbmFAZ29vZ2xlZ3JvdXBzLmNvbQ=="
      },
      "shop_text": "Vill du köpa biljetter till våra konserter eller våra skivor?\n",
      "shop_link": {
        "text": "HOLVI-webshop",
        "url": "https://holvi.com/shop/kamarikuorovarina/"
      }
    },
    "conductor": {
      "title": "Dirigent",
      "bio": "Noora Hirn, körens grundare och ledare, tog examen i musikpedagogik med inriktning på körledning vid institutionen för klassisk musik vid yrkeshögskolan Metropolia. Hirn studerade körledning för Kari Turunen, Jani Sivén, Rita Varonen och Seppo Murto samt sång för Katri Paukkunen och Teppo Lampela. Förutom Kammarkören Värinä leder Hirn även Savolaisen Osakunnan Laulajat. Tidigare har hon lett Kumpulan kuoro och Vaskivuoren lukion kamarikuoro, med vilken hon vann en internationell körtävling i Belgien 2016. Vid sidan av sitt körarbete arbetar Hirn som journalist och inspelningsproducent för musikavdelningen på Yle. Hirn är också en av sopranerna och grundare av vokalensemblen Uoma, som fokuserar på renässansmusik.\n",
      "image": "/src/content/choir/media/web_kuoro_johtaja01.jpg"
    },
    "summary": "Kammarkören värinä (på svenska ’vibration’) är en blandad kör från Helsingfors. Den utgörs av 40 sångare som förenas av passion för sång och kärlek till högklassig körmusik.",
    "introduction": "Värinä sjunger klassisk körmusik från renässans till moderna kompositioner. Kören vill förnya körkulturen och har uppträtt med brunch- och danskonserter samt medverkat förtjänstfullt i två mycket olika scenproduktioner, ett barockoratorium och en sovjetisk operett. Kören vill dela körmusikens njutning både med den mera bevandrade och den nya och nyfikna konsertpubliken, och därför har man sjungit såväl för småbarn som fångar.\n\n\n\n\n\nEtt album med sånger från de populära _Rauhaa_-julkonserterna i en mörklagd kyrka fick utmärkta recensioner 2019. Värinä var framgångsrik även i den internationella Anton Bruckner-körtävlingen 2019: kören tilldelades gulddiplom, vann kammarkörkategorin och uppnådde de högsta poängen i tävlingen. Vid Tampereen Sävel-festivalen 2017 fick Värinä två guldstämplar.\n",
    "title": "Kammarkören Värinä"
  },
  "en": {
    "join": {
      "title": "Contact Us",
      "contact_text": "Would you like to become a member of the Choir, co-operate or receive further information about us? \n",
      "contact_link": {
        "text": "Contact us",
        "email": "bXVzYS12YXJpbmFAZ29vZ2xlZ3JvdXBzLmNvbQ=="
      },
      "shop_text": "Would you like to buy concert tickets or Värinä's albums?\n",
      "shop_link": {
        "text": "HOLVI webshop",
        "url": "https://holvi.com/shop/kamarikuorovarina/"
      }
    },
    "conductor": {
      "title": "Conductor",
      "bio": "Noora Hirn, founder and conductor of the Värinä Chamber Choir, has graduated as choir conductor from Metropolia University of Applied Sciences. She studied choral conducting with e.g. Kari Turunen, Jani Sivén, Rita Varonen and Seppo Murto. As singer Hirn has studied with Katri Paukkunen and Teppo Lampela. In addition to Värinä, Hirn is the artistic director to student choir Savolaisen Osakunnan Laulajat. Previously Hirn has conducted e.g. Kumpulan kuoro and Vaskivuori Upper Secondary High School's chamber choir. In May 2016 Vaskivuori chamber choir under the lead of Hirn was nominated with the highest prize, 1st prize cum laude, in the jury concert of the European Music Festival for Young People in Neerpelt, Belgium. Hirn also works as journalist and record producer at the music department of the Finnish National Broadcasting Company Yle. She is as well one of the sopranos and founders of Uoma Vocal Ensemble, which specialises in Renaissance music.\n",
      "image": "/src/content/choir/media/web_kuoro_johtaja01.jpg"
    },
    "summary": "Värinä Chamber Choir (in English ”Vibration” or, pun intended, ”in colour”) is a mixed voices choir located in Helsinki, Finland. The forty singers share a passion for singing and a love towards high class choral music.",
    "introduction": "The Choir was formed in August 2013, when a group of well-experienced choir singers wanted to create a new home for their singing activities beyond the student choir years. The Choir rehearses on average twice a month, usually on Monday evenings at Alppila Church.\n\nThe repertoire consists mainly of classical choral music from Renaissance up to today. Värinä aims to revitalise choral culture and has created e.g. a brunch concert and a dance concert. The choir also has participated in diverse music theatre productions, such as a Baroque oratorio and a Soviet operetta. Open-minded to many kinds of music, Värinä has also sung on the album 'Survive' from the well-known power metal band Stratovarius. The choir wants to share the enjoyment and pleasure of choral music with both experienced audiences and new, curious listeners, and thus, Värinä has sung to toddlers and prisoners alike.\n\nThe Värinä Chamber Choir cherishes a special Christmas tradition: an annual concert titled Peace, held in a dark church, lit by only a few candles. Their unique atmosphere has been recorded on an album that was praised by critics in 2019. In June 2019 Värinä received golden diplomas and highest points and was the winner of the chamber choir category in the International Anton Bruckner Competition in Linz, Austria. In year 2017 Värinä received two golden stamps in Tampere Vocal Music Festival.\n",
    "title": "Värinä Chamber Choir",
    "singers": {
      "title": "Singers",
      "voices": {
        "soprano": "Sopranos",
        "alto": "Altos",
        "tenor": "Tenors",
        "bass": "Basses"
      }
    }
  }
}