{
  "title": "Kohokohtia",
  "summary": "Lastenkonsertti, hevilevy, requiem, tanssiaiset, neuvosto-operetti, vankilakonsertti, näyttämöllinen barokkioratorio, kuorokilpailut... Kamarikuoro Värinä taipuu moneen."
}