{
  "title": "Yhteystiedot ja lehdistömateriaali",
  "org_name": "Kamarikuoro Värinä ry",
  "booking": {
    "title": "Tilaa Värinä esiintymään tilaisuuteesi!",
    "text": "Värinä esiintyy mieluusti mitä moninaisimmissa tilaisuuksissa: perhejuhlissa häistä hautajaisiin sekä yritysten ja yhdistysten juhlissa. Voit tilata koko kuoron tai pienemmän kokoonpanon kuten kvartetin tai tuplakvartetin. Ota yhteyttä, niin sovitaan kappaleista ja hinnasta! \n",
    "contact_link": {
      "text": "Ota yhteyttä",
      "email": "dmFyaW5hLWhhbGxpdHVzQGdvb2dsZWdyb3Vwcy5jb20="
    }
  },
  "images": [
    "/src/content/press/media/noora-hirn-kuva-mia-jarvisalo.jpg",
    "/src/content/press/media/noora-hirn-2-kuva-mia-jarvisalo.jpg",
    "/src/content/press/media/varina-balderin-salissa-1-kuva-mia-jarvisalo.jpg",
    "/src/content/press/media/varina-balderin-salissa-2-kuva-mia-jarvisalo.jpg",
    "/src/content/press/media/varina-suvilahdessa-2-kuva-mia-jarvisalo.jpg",
    "/src/content/press/media/varina-suvilahdessa-4-kuva-mia-jarvisalo.jpg",
    "/src/content/press/media/varina-suvilahdessa-kuva-mia-jarvisalo.jpg",
    "/src/content/press/media/varina-suvilahdessa-5-kuva-mia-jarvisalo.jpg",
    "/src/content/press/media/varina-suvilahdessa-3-kuva-mia-jarvisalo.jpg"
  ],
  "choir_cv": "/src/content/press/media/värinä-cv-lyhyt-ja-pitkä-nettiin-1-.pdf",
  "conductor_cv": "/src/content/press/media/noora-hirn-cv-lyhyt-ja-pitkä-nettiin-1-.pdf"
}