{
  "date": "",
  "show_on_homepage": true,
  "id": "05775173-d5e1-4428-8f29-6b84b4477579",
  "text": "The choir's spontaneity and flexibility were first-rate. Needless to say, the result was brilliant and took the album to new heights.",
  "author": "Lauri Porra, Stratovariuksen basisti",
  "context": "Survive-levy"
}