{
  "date": "2023-01-18",
  "id": "9b0cd53e-bc3d-41fe-b9e0-3c9d23c0938d",
  "text": "Solistien ohella lavalla nähtiin Kamarikuoro Värinä, joka lauloi iskevästi ja näytteli upeasti.",
  "author": "Risto Nordell, Riston Valinta, Yle Radio 1",
  "context": "Lempeä lähiössä -operetti",
  "show_on_homepage": true
}