{
  "id": "870db628-e952-4c0e-9c87-7a5cbf6b7d4a",
  "title": "Art goes Kapakan Kuorojen kierros",
  "description": "-",
  "info": "-",
  "prices": [
    "-"
  ],
  "instances": [
    {
      "time": "2015-08-13T00:00:00.000+02:00",
      "place": {
        "name": "Helsinki",
        "address": "-"
      }
    }
  ],
  "latest_time": "2015-08-12T22:00:00Z",
  "year": 2015,
  "earliest_time": "2015-08-12T22:00:00.000Z"
}