{
  "id": "4f55d180-4e1f-4f97-b1e5-0797daea1fa6",
  "title": "Oi Lempi! -kevätkonsertti",
  "description": "-",
  "info": "-",
  "prices": [
    "-"
  ],
  "instances": [
    {
      "time": "2015-05-09T00:00:00.000+02:00",
      "place": {
        "name": "Lähetyskirkko",
        "address": "-"
      }
    }
  ],
  "latest_time": "2015-05-08T22:00:00Z",
  "year": 2015
}