{
  "id": "1c264ba7-d13b-44e3-8c58-e945572dbf3a",
  "title": "Rauhaa-joulukonsertit pimeässä kirkossa",
  "description": "-",
  "info": "-",
  "prices": [
    "-"
  ],
  "instances": [
    {
      "time": "2015-12-14T00:00:00.000+02:00",
      "place": {
        "name": "Paavalinkirkko",
        "address": "-"
      }
    },
    {
      "time": "2015-12-18T00:00:00.000+02:00",
      "place": {
        "name": "Paavalinkirkko",
        "address": "-"
      }
    }
  ],
  "latest_time": "2016-12-17T22:00:00Z",
  "year": 2015,
  "earliest_time": "2015-12-13T22:00:00.000Z"
}