{
  "id": "84a9125e-330d-46b0-9740-3349d9b0c94b",
  "title": "Rauhaa-joulukonsertit pimeässä kirkossa",
  "description": "",
  "info": "-",
  "prices": [
    "-"
  ],
  "instances": [
    {
      "time": "2017-12-14T00:00:00.000+02:00",
      "place": {
        "name": "Paavalinkirkko",
        "address": "-"
      }
    },
    {
      "time": "2017-12-19T00:00:00.000+02:00",
      "place": {
        "name": "Kallion kirkko",
        "address": "-"
      }
    }
  ],
  "latest_time": "2017-12-18T22:00:00Z",
  "year": 2017
}