{
  "id": "228f603e-9331-47cd-aec7-6f6d82f0755b",
  "title": "Esiintyminen Espan lavalla",
  "description": "-",
  "info": "-",
  "prices": [
    "-"
  ],
  "instances": [
    {
      "time": "2018-06-13T00:00:00.000+02:00",
      "place": {
        "name": "Esplanadi",
        "address": "-"
      }
    }
  ],
  "latest_time": "2018-06-12T22:00:00Z",
  "year": 2018,
  "earliest_time": "2018-06-12T22:00:00.000Z"
}