{
  "id": "5432a17b-5a01-4e0e-a3bd-6d7a2a45198d",
  "title": "Kaikua – Noora Hirnin kuoronjohdon B-tutkintokonsertti\nyhdessä Kamarikuoro Kampin Laulun kanssa",
  "description": "yhdessä Kamarikuoro Kampin Laulun kanssa",
  "info": "-",
  "prices": [
    "-"
  ],
  "instances": [
    {
      "time": "2018-02-15T00:00:00.000+02:00",
      "place": {
        "name": "Helsingin Konservatorio",
        "address": "-"
      }
    }
  ],
  "latest_time": "2018-02-14T22:00:00Z",
  "year": 2018,
  "earliest_time": "2018-02-14T22:00:00.000Z"
}