{
  "id": "e289a1a3-50df-4e5e-9e13-721db03da2a2",
  "title": "Rauhaa-joulukonsertit pimeässä kirkossa",
  "description": "",
  "info": "-",
  "prices": [
    "-"
  ],
  "instances": [
    {
      "time": "2019-12-12T00:00:00.000+02:00",
      "place": {
        "name": "Paavalinkirkko",
        "address": "-"
      }
    },
    {
      "time": "2019-12-16T00:00:00.000+02:00",
      "place": {
        "name": "Kallion kirkko",
        "address": "-"
      }
    }
  ],
  "latest_time": "2019-12-15T22:00:00Z",
  "year": 2019
}