{
  "id": "6b41631a-3ea9-44c1-9ce9-d19d6c3ef031",
  "title": "Esiintyminen Taiteiden yön Paavali soikoon! -kuoromaratonissa",
  "description": "",
  "info": "-",
  "prices": [
    "-"
  ],
  "instances": [
    {
      "time": "2019-08-15T00:00:00.000+02:00",
      "place": {
        "name": "Paavalinkirkko",
        "address": "-"
      }
    }
  ],
  "latest_time": "2019-08-14T22:00:00Z",
  "year": 2019
}