{
  "id": "be3c71f2-69d3-4fb6-9f7d-f6e4f2a1671d",
  "title": "Sanat – Words -ennakkokeikka",
  "description": "",
  "info": "-",
  "prices": [
    "-"
  ],
  "instances": [
    {
      "time": "2021-11-04T00:00:00.000+02:00",
      "place": {
        "name": "Oodi",
        "address": "-"
      }
    }
  ],
  "latest_time": "2021-11-03T22:00:00Z",
  "year": 2021
}