{
  "id": "6bfbebf8-90c5-4af7-bf80-e19427f2ca95",
  "title": "Koittava kirkkaus\nKamarikuoro Värinän ja Lempikuoron yhteinen kevätkonsertti",
  "description": "Kamarikuoro Värinän ja Lempikuoron yhteinen kevätkonsertti",
  "info": "-",
  "prices": [
    "-"
  ],
  "instances": [
    {
      "time": "2022-06-06T00:00:00.000+02:00",
      "place": {
        "name": "Balderin sali",
        "address": "-"
      }
    }
  ],
  "latest_time": "2022-06-05T22:00:00Z",
  "year": 2022,
  "earliest_time": "2022-06-05T22:00:00.000Z"
}