{
  "instances": [
    {
      "ticket_links": {
        "holvi": "https://holvi.com/shop/kamarikuorovarina/section/gloria-kamarikuoro-varinan-10-vuotisjuhlakonsertti/",
        "tiketti": "https://www.tiketti.fi/gloria-temppeliaukion-kirkko-helsinki-lippuja/93228"
      },
      "time": "2023-10-28T18:00:00.000+03:00",
      "place": {
        "name": "Temppeliaukion kirkko ",
        "address": "Lutherinkatu 3, Helsinki"
      }
    }
  ],
  "id": "e58bb12a-c79e-4222-aded-8cf429a1deae",
  "title": "Gloria!",
  "description": "Kamarikuoro Värinän 10-vuotis\\-juhla\\-konsertti",
  "info": "Gloria!-juhlakonsertti on ylistys musiikille ja elämälle. Ohjelmistossa soi tunteiden koko kirjo, päällimmäisenä riemu. Kamarikuoro Värinä esittää konsertissa nykysäveltäjien kuoromusiikin lisäksi kaksi barokin ajan mestariteosta yhdessä Helsingin Kamariorkesterin kanssa. \n",
  "prices": [
    "30",
    "20"
  ],
  "latest_time": "2023-10-28T15:00:00.000Z",
  "year": 2023,
  "earliest_time": "2023-10-28T15:00:00.000Z",
  "image": "/src/content/events/varina_10v_logo_neg_bg_mustard.jpg"
}
